// Jest Snapshot v1, https://goo.gl/fbAQLP

exports[`<Sidebar /> should render correctly 1`] = `
ShallowWrapper {
  Symbol(enzyme.__root__): [Circular],
  Symbol(enzyme.__unrendered__): <Sidebar />,
  Symbol(enzyme.__renderer__): Object {
    "batchedUpdates": [Function],
    "checkPropTypes": [Function],
    "getNode": [Function],
    "render": [Function],
    "simulateError": [Function],
    "simulateEvent": [Function],
    "unmount": [Function],
  },
  Symbol(enzyme.__node__): Object {
    "instance": null,
    "key": undefined,
    "nodeType": "host",
    "props": Object {
      "children": Array [
        Array [
          <div
            className="filter"
          >
            <Placeholder
              className={null}
              color={null}
              dark={true}
              height={20}
              repeat={1}
              width={100}
            />
            <Placeholder
              className={null}
              color={null}
              dark={false}
              height={18}
              repeat={1}
              width={70}
            />
            <Placeholder
              className={null}
              color={null}
              dark={false}
              height={18}
              repeat={1}
              width={70}
            />
            <Placeholder
              className={null}
              color={null}
              dark={false}
              height={18}
              repeat={1}
              width={120}
            />
            <Placeholder
              className={null}
              color={null}
              dark={false}
              height={18}
              repeat={1}
              width={120}
            />
            <Placeholder
              className={null}
              color={null}
              dark={false}
              height={18}
              repeat={1}
              width={70}
            />
            <Placeholder
              className={null}
              color={null}
              dark={false}
              height={18}
              repeat={1}
              width={70}
            />
          </div>,
          <div
            className="filter"
          >
            <Placeholder
              className={null}
              color={null}
              dark={true}
              height={20}
              repeat={1}
              width={100}
            />
            <Placeholder
              className={null}
              color={null}
              dark={false}
              height={18}
              repeat={1}
              width={70}
            />
            <Placeholder
              className={null}
              color={null}
              dark={false}
              height={18}
              repeat={1}
              width={70}
            />
            <Placeholder
              className={null}
              color={null}
              dark={false}
              height={18}
              repeat={1}
              width={120}
            />
            <Placeholder
              className={null}
              color={null}
              dark={false}
              height={18}
              repeat={1}
              width={120}
            />
            <Placeholder
              className={null}
              color={null}
              dark={false}
              height={18}
              repeat={1}
              width={70}
            />
            <Placeholder
              className={null}
              color={null}
              dark={false}
              height={18}
              repeat={1}
              width={70}
            />
          </div>,
        ],
        <div
          className="filter"
        >
          <Placeholder
            className={null}
            color={null}
            dark={true}
            height={20}
            repeat={1}
            width={100}
          />
          <Placeholder
            className={null}
            color={null}
            dark={true}
            height={20}
            repeat={1}
            width={100}
          />
          <Placeholder
            className={null}
            color={null}
            dark={true}
            height={20}
            repeat={1}
            width={100}
          />
        </div>,
      ],
      "className": "sidebar",
    },
    "ref": null,
    "rendered": Array [
      Object {
        "instance": null,
        "key": "0",
        "nodeType": "host",
        "props": Object {
          "children": Array [
            <Placeholder
              className={null}
              color={null}
              dark={true}
              height={20}
              repeat={1}
              width={100}
            />,
            Array [
              <Placeholder
                className={null}
                color={null}
                dark={false}
                height={18}
                repeat={1}
                width={70}
              />,
              <Placeholder
                className={null}
                color={null}
                dark={false}
                height={18}
                repeat={1}
                width={70}
              />,
            ],
            Array [
              <Placeholder
                className={null}
                color={null}
                dark={false}
                height={18}
                repeat={1}
                width={120}
              />,
              <Placeholder
                className={null}
                color={null}
                dark={false}
                height={18}
                repeat={1}
                width={120}
              />,
            ],
            Array [
              <Placeholder
                className={null}
                color={null}
                dark={false}
                height={18}
                repeat={1}
                width={70}
              />,
              <Placeholder
                className={null}
                color={null}
                dark={false}
                height={18}
                repeat={1}
                width={70}
              />,
            ],
          ],
          "className": "filter",
        },
        "ref": null,
        "rendered": Array [
          Object {
            "instance": null,
            "key": undefined,
            "nodeType": "function",
            "props": Object {
              "className": null,
              "color": null,
              "dark": true,
              "height": 20,
              "repeat": 1,
              "width": 100,
            },
            "ref": null,
            "rendered": null,
            "type": [Function],
          },
          Object {
            "instance": null,
            "key": "0",
            "nodeType": "function",
            "props": Object {
              "className": null,
              "color": null,
              "dark": false,
              "height": 18,
              "repeat": 1,
              "width": 70,
            },
            "ref": null,
            "rendered": null,
            "type": [Function],
          },
          Object {
            "instance": null,
            "key": "1",
            "nodeType": "function",
            "props": Object {
              "className": null,
              "color": null,
              "dark": false,
              "height": 18,
              "repeat": 1,
              "width": 70,
            },
            "ref": null,
            "rendered": null,
            "type": [Function],
          },
          Object {
            "instance": null,
            "key": "0",
            "nodeType": "function",
            "props": Object {
              "className": null,
              "color": null,
              "dark": false,
              "height": 18,
              "repeat": 1,
              "width": 120,
            },
            "ref": null,
            "rendered": null,
            "type": [Function],
          },
          Object {
            "instance": null,
            "key": "1",
            "nodeType": "function",
            "props": Object {
              "className": null,
              "color": null,
              "dark": false,
              "height": 18,
              "repeat": 1,
              "width": 120,
            },
            "ref": null,
            "rendered": null,
            "type": [Function],
          },
          Object {
            "instance": null,
            "key": "0",
            "nodeType": "function",
            "props": Object {
              "className": null,
              "color": null,
              "dark": false,
              "height": 18,
              "repeat": 1,
              "width": 70,
            },
            "ref": null,
            "rendered": null,
            "type": [Function],
          },
          Object {
            "instance": null,
            "key": "1",
            "nodeType": "function",
            "props": Object {
              "className": null,
              "color": null,
              "dark": false,
              "height": 18,
              "repeat": 1,
              "width": 70,
            },
            "ref": null,
            "rendered": null,
            "type": [Function],
          },
        ],
        "type": "div",
      },
      Object {
        "instance": null,
        "key": "1",
        "nodeType": "host",
        "props": Object {
          "children": Array [
            <Placeholder
              className={null}
              color={null}
              dark={true}
              height={20}
              repeat={1}
              width={100}
            />,
            Array [
              <Placeholder
                className={null}
                color={null}
                dark={false}
                height={18}
                repeat={1}
                width={70}
              />,
              <Placeholder
                className={null}
                color={null}
                dark={false}
                height={18}
                repeat={1}
                width={70}
              />,
            ],
            Array [
              <Placeholder
                className={null}
                color={null}
                dark={false}
                height={18}
                repeat={1}
                width={120}
              />,
              <Placeholder
                className={null}
                color={null}
                dark={false}
                height={18}
                repeat={1}
                width={120}
              />,
            ],
            Array [
              <Placeholder
                className={null}
                color={null}
                dark={false}
                height={18}
                repeat={1}
                width={70}
              />,
              <Placeholder
                className={null}
                color={null}
                dark={false}
                height={18}
                repeat={1}
                width={70}
              />,
            ],
          ],
          "className": "filter",
        },
        "ref": null,
        "rendered": Array [
          Object {
            "instance": null,
            "key": undefined,
            "nodeType": "function",
            "props": Object {
              "className": null,
              "color": null,
              "dark": true,
              "height": 20,
              "repeat": 1,
              "width": 100,
            },
            "ref": null,
            "rendered": null,
            "type": [Function],
          },
          Object {
            "instance": null,
            "key": "0",
            "nodeType": "function",
            "props": Object {
              "className": null,
              "color": null,
              "dark": false,
              "height": 18,
              "repeat": 1,
              "width": 70,
            },
            "ref": null,
            "rendered": null,
            "type": [Function],
          },
          Object {
            "instance": null,
            "key": "1",
            "nodeType": "function",
            "props": Object {
              "className": null,
              "color": null,
              "dark": false,
              "height": 18,
              "repeat": 1,
              "width": 70,
            },
            "ref": null,
            "rendered": null,
            "type": [Function],
          },
          Object {
            "instance": null,
            "key": "0",
            "nodeType": "function",
            "props": Object {
              "className": null,
              "color": null,
              "dark": false,
              "height": 18,
              "repeat": 1,
              "width": 120,
            },
            "ref": null,
            "rendered": null,
            "type": [Function],
          },
          Object {
            "instance": null,
            "key": "1",
            "nodeType": "function",
            "props": Object {
              "className": null,
              "color": null,
              "dark": false,
              "height": 18,
              "repeat": 1,
              "width": 120,
            },
            "ref": null,
            "rendered": null,
            "type": [Function],
          },
          Object {
            "instance": null,
            "key": "0",
            "nodeType": "function",
            "props": Object {
              "className": null,
              "color": null,
              "dark": false,
              "height": 18,
              "repeat": 1,
              "width": 70,
            },
            "ref": null,
            "rendered": null,
            "type": [Function],
          },
          Object {
            "instance": null,
            "key": "1",
            "nodeType": "function",
            "props": Object {
              "className": null,
              "color": null,
              "dark": false,
              "height": 18,
              "repeat": 1,
              "width": 70,
            },
            "ref": null,
            "rendered": null,
            "type": [Function],
          },
        ],
        "type": "div",
      },
      Object {
        "instance": null,
        "key": undefined,
        "nodeType": "host",
        "props": Object {
          "children": Array [
            <Placeholder
              className={null}
              color={null}
              dark={true}
              height={20}
              repeat={1}
              width={100}
            />,
            <Placeholder
              className={null}
              color={null}
              dark={true}
              height={20}
              repeat={1}
              width={100}
            />,
            <Placeholder
              className={null}
              color={null}
              dark={true}
              height={20}
              repeat={1}
              width={100}
            />,
          ],
          "className": "filter",
        },
        "ref": null,
        "rendered": Array [
          Object {
            "instance": null,
            "key": "0",
            "nodeType": "function",
            "props": Object {
              "className": null,
              "color": null,
              "dark": true,
              "height": 20,
              "repeat": 1,
              "width": 100,
            },
            "ref": null,
            "rendered": null,
            "type": [Function],
          },
          Object {
            "instance": null,
            "key": "1",
            "nodeType": "function",
            "props": Object {
              "className": null,
              "color": null,
              "dark": true,
              "height": 20,
              "repeat": 1,
              "width": 100,
            },
            "ref": null,
            "rendered": null,
            "type": [Function],
          },
          Object {
            "instance": null,
            "key": "2",
            "nodeType": "function",
            "props": Object {
              "className": null,
              "color": null,
              "dark": true,
              "height": 20,
              "repeat": 1,
              "width": 100,
            },
            "ref": null,
            "rendered": null,
            "type": [Function],
          },
        ],
        "type": "div",
      },
    ],
    "type": "aside",
  },
  Symbol(enzyme.__nodes__): Array [
    Object {
      "instance": null,
      "key": undefined,
      "nodeType": "host",
      "props": Object {
        "children": Array [
          Array [
            <div
              className="filter"
            >
              <Placeholder
                className={null}
                color={null}
                dark={true}
                height={20}
                repeat={1}
                width={100}
              />
              <Placeholder
                className={null}
                color={null}
                dark={false}
                height={18}
                repeat={1}
                width={70}
              />
              <Placeholder
                className={null}
                color={null}
                dark={false}
                height={18}
                repeat={1}
                width={70}
              />
              <Placeholder
                className={null}
                color={null}
                dark={false}
                height={18}
                repeat={1}
                width={120}
              />
              <Placeholder
                className={null}
                color={null}
                dark={false}
                height={18}
                repeat={1}
                width={120}
              />
              <Placeholder
                className={null}
                color={null}
                dark={false}
                height={18}
                repeat={1}
                width={70}
              />
              <Placeholder
                className={null}
                color={null}
                dark={false}
                height={18}
                repeat={1}
                width={70}
              />
            </div>,
            <div
              className="filter"
            >
              <Placeholder
                className={null}
                color={null}
                dark={true}
                height={20}
                repeat={1}
                width={100}
              />
              <Placeholder
                className={null}
                color={null}
                dark={false}
                height={18}
                repeat={1}
                width={70}
              />
              <Placeholder
                className={null}
                color={null}
                dark={false}
                height={18}
                repeat={1}
                width={70}
              />
              <Placeholder
                className={null}
                color={null}
                dark={false}
                height={18}
                repeat={1}
                width={120}
              />
              <Placeholder
                className={null}
                color={null}
                dark={false}
                height={18}
                repeat={1}
                width={120}
              />
              <Placeholder
                className={null}
                color={null}
                dark={false}
                height={18}
                repeat={1}
                width={70}
              />
              <Placeholder
                className={null}
                color={null}
                dark={false}
                height={18}
                repeat={1}
                width={70}
              />
            </div>,
          ],
          <div
            className="filter"
          >
            <Placeholder
              className={null}
              color={null}
              dark={true}
              height={20}
              repeat={1}
              width={100}
            />
            <Placeholder
              className={null}
              color={null}
              dark={true}
              height={20}
              repeat={1}
              width={100}
            />
            <Placeholder
              className={null}
              color={null}
              dark={true}
              height={20}
              repeat={1}
              width={100}
            />
          </div>,
        ],
        "className": "sidebar",
      },
      "ref": null,
      "rendered": Array [
        Object {
          "instance": null,
          "key": "0",
          "nodeType": "host",
          "props": Object {
            "children": Array [
              <Placeholder
                className={null}
                color={null}
                dark={true}
                height={20}
                repeat={1}
                width={100}
              />,
              Array [
                <Placeholder
                  className={null}
                  color={null}
                  dark={false}
                  height={18}
                  repeat={1}
                  width={70}
                />,
                <Placeholder
                  className={null}
                  color={null}
                  dark={false}
                  height={18}
                  repeat={1}
                  width={70}
                />,
              ],
              Array [
                <Placeholder
                  className={null}
                  color={null}
                  dark={false}
                  height={18}
                  repeat={1}
                  width={120}
                />,
                <Placeholder
                  className={null}
                  color={null}
                  dark={false}
                  height={18}
                  repeat={1}
                  width={120}
                />,
              ],
              Array [
                <Placeholder
                  className={null}
                  color={null}
                  dark={false}
                  height={18}
                  repeat={1}
                  width={70}
                />,
                <Placeholder
                  className={null}
                  color={null}
                  dark={false}
                  height={18}
                  repeat={1}
                  width={70}
                />,
              ],
            ],
            "className": "filter",
          },
          "ref": null,
          "rendered": Array [
            Object {
              "instance": null,
              "key": undefined,
              "nodeType": "function",
              "props": Object {
                "className": null,
                "color": null,
                "dark": true,
                "height": 20,
                "repeat": 1,
                "width": 100,
              },
              "ref": null,
              "rendered": null,
              "type": [Function],
            },
            Object {
              "instance": null,
              "key": "0",
              "nodeType": "function",
              "props": Object {
                "className": null,
                "color": null,
                "dark": false,
                "height": 18,
                "repeat": 1,
                "width": 70,
              },
              "ref": null,
              "rendered": null,
              "type": [Function],
            },
            Object {
              "instance": null,
              "key": "1",
              "nodeType": "function",
              "props": Object {
                "className": null,
                "color": null,
                "dark": false,
                "height": 18,
                "repeat": 1,
                "width": 70,
              },
              "ref": null,
              "rendered": null,
              "type": [Function],
            },
            Object {
              "instance": null,
              "key": "0",
              "nodeType": "function",
              "props": Object {
                "className": null,
                "color": null,
                "dark": false,
                "height": 18,
                "repeat": 1,
                "width": 120,
              },
              "ref": null,
              "rendered": null,
              "type": [Function],
            },
            Object {
              "instance": null,
              "key": "1",
              "nodeType": "function",
              "props": Object {
                "className": null,
                "color": null,
                "dark": false,
                "height": 18,
                "repeat": 1,
                "width": 120,
              },
              "ref": null,
              "rendered": null,
              "type": [Function],
            },
            Object {
              "instance": null,
              "key": "0",
              "nodeType": "function",
              "props": Object {
                "className": null,
                "color": null,
                "dark": false,
                "height": 18,
                "repeat": 1,
                "width": 70,
              },
              "ref": null,
              "rendered": null,
              "type": [Function],
            },
            Object {
              "instance": null,
              "key": "1",
              "nodeType": "function",
              "props": Object {
                "className": null,
                "color": null,
                "dark": false,
                "height": 18,
                "repeat": 1,
                "width": 70,
              },
              "ref": null,
              "rendered": null,
              "type": [Function],
            },
          ],
          "type": "div",
        },
        Object {
          "instance": null,
          "key": "1",
          "nodeType": "host",
          "props": Object {
            "children": Array [
              <Placeholder
                className={null}
                color={null}
                dark={true}
                height={20}
                repeat={1}
                width={100}
              />,
              Array [
                <Placeholder
                  className={null}
                  color={null}
                  dark={false}
                  height={18}
                  repeat={1}
                  width={70}
                />,
                <Placeholder
                  className={null}
                  color={null}
                  dark={false}
                  height={18}
                  repeat={1}
                  width={70}
                />,
              ],
              Array [
                <Placeholder
                  className={null}
                  color={null}
                  dark={false}
                  height={18}
                  repeat={1}
                  width={120}
                />,
                <Placeholder
                  className={null}
                  color={null}
                  dark={false}
                  height={18}
                  repeat={1}
                  width={120}
                />,
              ],
              Array [
                <Placeholder
                  className={null}
                  color={null}
                  dark={false}
                  height={18}
                  repeat={1}
                  width={70}
                />,
                <Placeholder
                  className={null}
                  color={null}
                  dark={false}
                  height={18}
                  repeat={1}
                  width={70}
                />,
              ],
            ],
            "className": "filter",
          },
          "ref": null,
          "rendered": Array [
            Object {
              "instance": null,
              "key": undefined,
              "nodeType": "function",
              "props": Object {
                "className": null,
                "color": null,
                "dark": true,
                "height": 20,
                "repeat": 1,
                "width": 100,
              },
              "ref": null,
              "rendered": null,
              "type": [Function],
            },
            Object {
              "instance": null,
              "key": "0",
              "nodeType": "function",
              "props": Object {
                "className": null,
                "color": null,
                "dark": false,
                "height": 18,
                "repeat": 1,
                "width": 70,
              },
              "ref": null,
              "rendered": null,
              "type": [Function],
            },
            Object {
              "instance": null,
              "key": "1",
              "nodeType": "function",
              "props": Object {
                "className": null,
                "color": null,
                "dark": false,
                "height": 18,
                "repeat": 1,
                "width": 70,
              },
              "ref": null,
              "rendered": null,
              "type": [Function],
            },
            Object {
              "instance": null,
              "key": "0",
              "nodeType": "function",
              "props": Object {
                "className": null,
                "color": null,
                "dark": false,
                "height": 18,
                "repeat": 1,
                "width": 120,
              },
              "ref": null,
              "rendered": null,
              "type": [Function],
            },
            Object {
              "instance": null,
              "key": "1",
              "nodeType": "function",
              "props": Object {
                "className": null,
                "color": null,
                "dark": false,
                "height": 18,
                "repeat": 1,
                "width": 120,
              },
              "ref": null,
              "rendered": null,
              "type": [Function],
            },
            Object {
              "instance": null,
              "key": "0",
              "nodeType": "function",
              "props": Object {
                "className": null,
                "color": null,
                "dark": false,
                "height": 18,
                "repeat": 1,
                "width": 70,
              },
              "ref": null,
              "rendered": null,
              "type": [Function],
            },
            Object {
              "instance": null,
              "key": "1",
              "nodeType": "function",
              "props": Object {
                "className": null,
                "color": null,
                "dark": false,
                "height": 18,
                "repeat": 1,
                "width": 70,
              },
              "ref": null,
              "rendered": null,
              "type": [Function],
            },
          ],
          "type": "div",
        },
        Object {
          "instance": null,
          "key": undefined,
          "nodeType": "host",
          "props": Object {
            "children": Array [
              <Placeholder
                className={null}
                color={null}
                dark={true}
                height={20}
                repeat={1}
                width={100}
              />,
              <Placeholder
                className={null}
                color={null}
                dark={true}
                height={20}
                repeat={1}
                width={100}
              />,
              <Placeholder
                className={null}
                color={null}
                dark={true}
                height={20}
                repeat={1}
                width={100}
              />,
            ],
            "className": "filter",
          },
          "ref": null,
          "rendered": Array [
            Object {
              "instance": null,
              "key": "0",
              "nodeType": "function",
              "props": Object {
                "className": null,
                "color": null,
                "dark": true,
                "height": 20,
                "repeat": 1,
                "width": 100,
              },
              "ref": null,
              "rendered": null,
              "type": [Function],
            },
            Object {
              "instance": null,
              "key": "1",
              "nodeType": "function",
              "props": Object {
                "className": null,
                "color": null,
                "dark": true,
                "height": 20,
                "repeat": 1,
                "width": 100,
              },
              "ref": null,
              "rendered": null,
              "type": [Function],
            },
            Object {
              "instance": null,
              "key": "2",
              "nodeType": "function",
              "props": Object {
                "className": null,
                "color": null,
                "dark": true,
                "height": 20,
                "repeat": 1,
                "width": 100,
              },
              "ref": null,
              "rendered": null,
              "type": [Function],
            },
          ],
          "type": "div",
        },
      ],
      "type": "aside",
    },
  ],
  Symbol(enzyme.__options__): Object {
    "adapter": ReactSixteenAdapter {
      "options": Object {
        "enableComponentDidUpdateOnSetState": true,
        "legacyContextMode": "parent",
        "lifecycles": Object {
          "componentDidUpdate": Object {
            "onSetState": true,
          },
          "getChildContext": Object {
            "calledByRenderer": false,
          },
          "getDerivedStateFromProps": true,
          "getSnapshotBeforeUpdate": true,
          "setState": Object {
            "skipsComponentDidUpdateOnNullish": true,
          },
        },
      },
    },
  },
}
`;
