// Jest Snapshot v1, https://goo.gl/fbAQLP

exports[`Switches::ducks Create Switch actionTypes should match with the snapshot 1`] = `
Object {
  "REQUEST": "CREATE_SWITCH_REQUEST",
  "REQUEST_ERROR": "CREATE_SWITCH_REQUEST_ERROR",
  "REQUEST_SUCCESS": "CREATE_SWITCH_REQUEST_SUCCESS",
  "RESET": "CREATE_SWITCH_RESET",
  "actionName": "CREATE_SWITCH",
}
`;

exports[`Switches::ducks Create Switch actions should match with the snapshot 1`] = `undefined`;

exports[`Switches::ducks Create Switch reducer should match with the snapshot 1`] = `undefined`;

exports[`Switches::ducks Fetch Switches Switches::actions actions 1`] = `undefined`;

exports[`Switches::ducks Fetch Switches actionTypes should match with the snapshot 1`] = `undefined`;

exports[`Switches::ducks Fetch Switches reducer should match with the snapshot 1`] = `undefined`;
